%YAML 1.1
%TAG !u! tag:unity3d.com,2011:
--- !u!1045 &1
EditorBuildSettings:
  m_ObjectHideFlags: 0
  serializedVersion: 2
  m_Scenes:
  - enabled: 1
    path: Assets/Scenes/MainMenu.unity
    guid: 3f3af9a45f24af048a5550b0c3614a4e
  - enabled: 1
    path: Assets/Scenes/ChooseRunner.unity
    guid: 0078de0d5ec0ced4aaeb94b488407017
  - enabled: 1
    path: Assets/Scenes/Game.unity
    guid: 8c9cfa26abfee488c85f1582747f6a02
  m_configObjects:
    com.unity.input.settings: {fileID: 11400000, guid: 68c87fedc9c35164e873d7287e7a4e8d, type: 2}
